<?xml version="1.0" encoding="UTF-8"?>
<svg width="28px" height="24px" viewBox="0 0 28 24" version="1.1" xmlns="http://www.w3.org/2000/svg" xmlns:xlink="http://www.w3.org/1999/xlink">
    <!-- Generator: Sketch 47.1 (45422) - http://www.bohemiancoding.com/sketch -->
    <title>Group 2</title>
    <desc>Created with Sketch.</desc>
    <defs>
        <circle id="path-1" cx="6" cy="4" r="4"></circle>
        <circle id="path-2" cx="22" cy="12" r="4"></circle>
        <circle id="path-3" cx="9" cy="20" r="4"></circle>
    </defs>
    <g id="Page-2" stroke="none" stroke-width="1" fill="none" fill-rule="evenodd">
        <g id="Artboard" transform="translate(-2.000000, -4.000000)">
            <g id="Group-2">
                <rect id="Rectangle-10" x="0" y="0" width="32" height="32"></rect>
                <g id="Group" transform="translate(2.000000, 4.000000)">
                    <rect id="Rectangle" fill="#000000" x="0" y="3" width="28" height="2"></rect>
                    <rect id="Rectangle-Copy" fill="#000000" x="0" y="11" width="28" height="2"></rect>
                    <rect id="Rectangle-Copy-2" fill="#000000" x="0" y="19" width="28" height="2"></rect>
                    <g id="Oval-2">
                        <use fill="#F4F4F4" fill-rule="evenodd" xlink:href="#path-1"></use>
                        <circle stroke="#000000" stroke-width="2" cx="6" cy="4" r="3"></circle>
                    </g>
                    <g id="Oval-2-Copy">
                        <use fill="#F4F4F4" fill-rule="evenodd" xlink:href="#path-2"></use>
                        <circle stroke="#000000" stroke-width="2" cx="22" cy="12" r="3"></circle>
                    </g>
                    <g id="Oval-2-Copy-2">
                        <use fill="#F4F4F4" fill-rule="evenodd" xlink:href="#path-3"></use>
                        <circle stroke="#000000" stroke-width="2" cx="9" cy="20" r="3"></circle>
                    </g>
                </g>
            </g>
        </g>
    </g>
</svg>